Machine Learning
…
pre[class] {
  max-height: 100px;
}
</style>

### Melhores Hiperparâmetros

```r
# metrics

collect_metrics(xgb_res)
```

```
## # A tibble: 150 × 12
##     mtry min_n tree_depth learn_rate loss_…¹ sampl…² .metric .esti…³  mean     n
##    <int> <int>      <int>      <dbl>   <dbl>   <dbl> <chr>   <chr>   <dbl> <int>
##  1     5    29         11    7.38e-9 1.05e-5   0.731 npv     binary  0.436    50
##  2     5    29         11    7.38e-9 1.05e-5   0.731 ppv     binary  0.962    50
##  3     5    29         11    7.38e-9 1.05e-5   0.731 roc_auc binary  0.881    50
##  4     5    29         11    7.38e-9 1.05e-5   0.731 sensit… binary  0.892    50
##  5     5    29         11    7.38e-9 1.05e-5   0.731 specif… binary  0.704    50
##  6     2    20          3    3.75e-4 2.24e-4   0.210 npv     binary  0.330    50
##  7     2    20          3    3.75e-4 2.24e-4   0.210 ppv     binary  0.957    50
##  8     2    20          3    3.75e-4 2.24e-4   0.210 roc_auc binary  0.851    50
##  9     2    20          3    3.75e-4 2.24e-4   0.210 sensit… binary  0.835    50
## 10     2    20          3    3.75e-4 2.24e-4   0.210 specif… binary  0.686    50
## # … with 140 more rows, 2 more variables: std_err <dbl>, .config <chr>, and
## #   abbreviated variable names ¹​loss_reduction, ²​sample_size, ³​.estimator
## # ℹ Use `print(n = ...)` to see more rows, and `colnames()` to see all variable names
```
…
